1983.6959	,	8.07
1983.7726	,	8.088
1984.0712	,	8.146
1984.1836	,	8.145
1984.326	,	8.144
1984.4877	,	8.112
1984.5589	,	8.031
1984.6219	,	8.038
1984.6932	,	8.086
1984.7534	,	8.091
1984.8767	,	8.131
1984.9607	,	8.148
1985.0976	,	8.149
1985.1168	,	8.149
1985.2017	,	8.14
1985.2758	,	8.144
1985.3306	,	8.138
1985.4814	,	8.061
1985.5551	,	8.059
1985.6483	,	8.056
1985.7853	,	8.102
1985.8509	,	8.102
1985.9279	,	8.132
1986.0921	,	8.146
1986.2595	,	8.154
1986.3222	,	8.15
1986.4071	,	8.135
1986.514	,	8.073
1986.651	,	8.06
1986.7276	,	8.097
1986.8456	,	8.122
1986.8895	,	8.122
1987.0595	,	8.145
1987.1797	,	8.147
1987.2372	,	8.149
1987.3058	,	8.142
1987.399	,	8.116
1987.484	,	8.084
1987.5443	,	8.056
1987.6539	,	8.085
1987.7991	,	8.09
1987.8621	,	8.108
1987.9224	,	8.137
1988.067	,	8.148
1988.185	,	8.146
1988.36	,	8.11
1988.4478	,	8.102
1988.5518	,	8.059
1988.6449	,	8.062
1988.7195	,	8.08
1988.8069	,	8.126
1988.8181	,	8.096
1988.8992	,	8.143
1988.9692	,	8.141
1989.0783	,	8.181
1989.1412	,	8.177
1989.2315	,	8.154
1989.295	,	8.133
1989.3737	,	8.112
1989.4754	,	8.069
1989.55	,	8.068
1989.6255	,	8.101
1989.8041	,	8.113
1989.909	,	8.111
1989.9697	,	8.123
1990.0456	,	8.134
1990.1299	,	8.137
1990.201	,	8.135
1990.297	,	8.123
1990.3547	,	8.134
1990.4758	,	8.093
1990.5434	,	8.05
1990.6181	,	8.064
1990.6948	,	8.056
1990.7876	,	8.101
1990.8455	,	8.116
1990.925	,	8.136
1991.045	,	8.14
1991.117	,	8.133
1991.1972	,	8.141
1991.292	,	8.13
1991.3664	,	8.129
1991.4678	,	8.082
1991.5388	,	8.059
1991.6155	,	8.04
1991.6998	,	8.093
1991.769	,	8.087
1991.865	,	8.122
1991.9415	,	8.14
1992.0257	,	8.14
1992.1214	,	8.113
1992.1925	,	8.144
1992.3071	,	8.139
1992.3818	,	8.099
1992.4628	,	8.087
1992.5366	,	8.053
1992.6328	,	8.045
1992.7087	,	8.07
1992.7852	,	8.098
1992.8642	,	8.111
1992.9333	,	8.132
1993.0325	,	8.15
1993.1078	,	8.148
1993.1521	,	8.139
1993.1879	,	8.131
1993.2424	,	8.129
1993.2838	,	8.132
1993.3191	,	8.133
1993.3521	,	8.112
1993.4538	,	8.084
1993.5303	,	8.04
1993.628	,	8.052
1993.7028	,	8.066
1993.7794	,	8.086
1993.8561	,	8.093
1993.9329	,	8.115
1994.0316	,	8.144
1994.1329	,	8.139
1994.2176	,	8.139
1994.2617	,	8.131
1994.2973	,	8.136
1994.3739	,	8.105
1994.4508	,	8.066
1994.5466	,	8.027
1994.6233	,	8.03
1994.7193	,	8.07
1994.7986	,	8.109
1994.8726	,	8.119
1994.9385	,	8.122
1995.0288	,	8.132
1995.0316	,	8.121
1995.1219	,	8.131
1995.2042	,	8.137
1995.2753	,	8.134
1995.3193	,	8.119
1995.3576	,	8.141
1995.448	,	8.065
1995.5248	,	8.055
1995.64	,	8.067
1995.7	,	8.063
1995.7822	,	8.07
1995.8614	,	8.106
1995.9546	,	8.123
1996.0809	,	8.133
1996.1248	,	8.124
1996.1604	,	8.124
1996.2016	,	8.13
1996.2371	,	8.127
1996.27	,	8.126
1996.3083	,	8.121
1996.3466	,	8.106
1996.4425	,	8.069
1996.5193	,	8.055
1996.5959	,	8.058
1996.6728	,	8.048
1996.7713	,	8.076
1996.848	,	8.102
1996.9467	,	8.118
1997.0371	,	8.139
1997.0754	,	8.129
1997.1029	,	8.132
1997.1411	,	8.123
1997.1741	,	8.122
1997.2123	,	8.133
1997.2699	,	8.122
1997.3439	,	8.122
1997.4425	,	8.087
1997.5384	,	8.047
1997.6125	,	8.041
1997.6974	,	8.072
1997.7662	,	8.07
1997.8649	,	8.105
1997.9389	,	8.109
1998.0346	,	8.121
1998.117	,	8.13
1998.1609	,	8.123
1998.1934	,	8.127
1998.2292	,	8.127
1998.2647	,	8.117
1998.3415	,	8.116
1998.4181	,	8.082
1998.514	,	8.033
1998.6099	,	8.023
1998.6922	,	8.04
1998.8072	,	8.09
1998.879	,	8.102
1998.9359	,	8.115
1999.041	,	8.112
1999.1166	,	8.13
1999.2116	,	8.112
1999.2235	,	8.147
1999.2646	,	8.115
1999.3386	,	8.099
1999.4156	,	8.071
1999.5112	,	8.046
1999.5879	,	8.038
1999.7056	,	8.05
1999.7795	,	8.076
1999.8593	,	8.095
1999.9388	,	8.11
2000.0784	,	8.118
2000.1249	,	8.131
2000.199	,	8.14
2000.2369	,	8.131
2000.2755	,	8.138
2000.3549	,	8.091
2000.4289	,	8.068
2000.5247	,	8.062
2000.6016	,	8.029
2000.7003	,	8.067
2000.7962	,	8.085
2000.8702	,	8.105
2000.9469	,	8.113
2001.0811	,	8.134
2001.1387	,	8.117
2001.1851	,	8.119
2001.2154	,	8.107
2001.2567	,	8.092
2001.2947	,	8.125
2001.369	,	8.103
2001.4262	,	8.07
2001.5439	,	8.07
2001.5987	,	8.05
2001.6974	,	8.062
2001.7906	,	8.088
2001.8564	,	8.11
2001.9441	,	8.116
2002.06	,	8.121
2002.1583	,	8.137
2002.2126	,	8.119
2002.2892	,	8.134
2002.3659	,	8.121
2002.4235	,	8.077
2002.5002	,	8.037
2002.6344	,	8.042
2002.7111	,	8.054
2002.7687	,	8.082
2002.8674	,	8.091
2002.9414	,	8.12
2003.1414	,	8.129
2003.1715	,	8.134
2003.2181	,	8.132
2003.2537	,	8.132
2003.3086	,	8.114
2003.3851	,	8.07
2003.5085	,	8.044
2003.5386	,	8.032
2003.6152	,	8.029
2003.7194	,	8.049
2003.7686	,	8.047
2003.8455	,	8.088
2003.9222	,	8.081
2004.0754	,	8.129
2004.125	,	8.129
2004.1491	,	8.121
2004.1885	,	8.122
2004.2242	,	8.104
2004.2665	,	8.114
2004.3076	,	8.111
2004.3813	,	8.075
2004.4578	,	8.079
2004.5371	,	8.034
2004.6299	,	8.027
2004.7064	,	8.04
2004.7857	,	8.071
2004.865	,	8.09
2004.9361	,	8.098
2005.0728	,	8.1
2005.1057	,	8.12
2005.1496	,	8.117
2005.1824	,	8.123
2005.2181	,	8.12
2005.2618	,	8.118
2005.2974	,	8.124
2005.3741	,	8.097
2005.4508	,	8.056
2005.5467	,	8.021
2005.6045	,	8.033
2005.681	,	8.04
2005.7768	,	8.069
2005.8591	,	8.078
2005.9379	,	8.104
2006.0784	,	8.113
2006.1057	,	8.125
2006.1441	,	8.118
2006.2591	,	8.122
2006.3534	,	8.021
2006.4865	,	8.036
2006.5468	,	8.021
2006.6043	,	8.039
2006.6811	,	8.018
2006.7039	,	8.067
2006.7399	,	8.04
2006.7796	,	8.104
2006.8537	,	8.081
2006.9112	,	8.087
2006.9277	,	8.08
2007.0761	,	8.105
2007.1077	,	8.082
2007.1441	,	8.088
2007.1796	,	8.108
2007.2181	,	8.113
2007.2534	,	8.105
2007.2868	,	8.108
2007.3742	,	8.091
2007.47	,	8.057
2007.5468	,	8.029
2007.6266	,	8.02
2007.6866	,	8.057
2007.7633	,	8.076
2007.8701	,	8.08
2007.9305	,	8.089
2008.0453	,	8.104
2008.1165	,	8.112
2008.1464	,	8.106
2008.1986	,	8.11
2008.2312	,	8.108
2008.2886	,	8.09
2008.4113	,	8.083
2008.4742	,	8.047
2008.5455	,	8.04
2008.619	,	8.023
2008.6982	,	8.028
2008.772	,	8.048
2008.8595	,	8.087
2008.9579	,	8.097
2009.1085	,	8.09
2009.1442	,	8.101
2009.1763	,	8.108
2009.2125	,	8.104
2009.2481	,	8.103
2009.2865	,	8.091
2009.3714	,	8.065
2009.4426	,	8.042
2009.5358	,	8.039
2009.6207	,	8.013
2009.6975	,	8.019
2009.7741	,	8.05
2009.8541	,	8.069
2009.9389	,	8.084
2010.0979	,	8.107
2010.1507	,	8.096
2010.189	,	8.094
2010.2329	,	8.073
2010.2685	,	8.112
2010.3068	,	8.1
2010.3671	,	8.095
2010.4767	,	7.998
2010.5618	,	8.018
2010.6384	,	8.027
2010.6795	,	8.046
2010.766	,	8.069
2010.862	,	8.086
2010.9389	,	8.11
2011.1477	,	8.118
2011.2345	,	8.13
2011.27	,	8.106
2011.3194	,	8.099
2011.377	,	8.105
2011.5141	,	8.017
2011.6318	,	8.042
2011.7005	,	8.031
2011.8337	,	8.074
2011.8813	,	8.094
2011.9357	,	8.113
2012.08107	,	8.117
2012.11112	,	8.113
2012.18762	,	8.106
2012.24193	,	8.118
2012.28033	,	8.105
2012.31866	,	8.087
2012.38428	,	8.081
2012.4662	,	8.061
2012.53178	,	8.025
2012.6373	,	8.025
2012.7012	,	8.044
2012.8005	,	8.058
2012.874	,	8.074
2012.9469	,	8.087
2013.062	,	8.112
2013.119	,	8.102
2013.155	,	8.111
2013.196	,	8.123
2013.235	,	8.116
2013.267	,	8.116
2013.311	,	8.112
2013.372	,	8.089
2013.457	,	8.056
2013.511	,	8.022
2013.588	,	8.016
2013.714	,	8.047
2013.802	,	8.069
2013.873	,	8.1
2013.942	,	8.1
2014.18	,	8.1
2014.278	,	8.14
2014.328	,	8.121
2014.448	,	8.076
2014.525	,	8.037
2014.64	,	8.039
2014.703	,	8.046
2014.826	,	8.094
2014.89	,	8.088
2014.944	,	8.1
2015.095	,	8.117
2015.196	,	8.122
2015.27	,	8.104
2015.363	,	8.087
2015.479	,	8.029
2015.534	,	8.043
2015.627	,	8.017
2015.7	,	8.039
2015.863	,	8.089
2015.911	,	8.099
2015.95	,	8.095
1995.7507	,	8.0765
1995.7562	,	8.0743
1995.7644	,	8.0713
1995.9014	,	8.0837
1996.0656	,	8.1117
1996.0956	,	8.1117
1996.1038	,	8.1149
1996.2049	,	8.1254
1996.3142	,	8.1082
1996.3716	,	8.1013
1996.377	,	8.1019
1996.3907	,	8.1037
1996.4481	,	8.0979
1996.5219	,	8.0977
1996.7404	,	8.0794
1996.8306	,	8.0776
1996.9617	,	8.108
1997.0301	,	8.1157
1997.2027	,	8.1001
1997.2849	,	8.103
1997.3671	,	8.0985
1997.4438	,	8.0756
1997.4493	,	8.0779
1997.5068	,	8.0729
1997.8466	,	8.0744
1997.9233	,	8.0837
1998.0575	,	8.1005
1998.1342	,	8.1121
1998.2301	,	8.1007
1998.2658	,	8.1016
1998.3151	,	8.1077
1998.3836	,	8.0967
1998.4822	,	8.087
1998.5014	,	8.084
1998.7425	,	8.0669
1998.7671	,	8.0646
1998.8822	,	8.09
1998.9589	,	8.1088
1999.0904	,	8.1224
1999.0986	,	8.1329
1999.1315	,	8.1331
1999.2164	,	8.1223
1999.811	,	8.0678
1999.8411	,	8.0772
2000.0656	,	8.1269
2000.0847	,	8.1196
2000.1967	,	8.1123
2000.2568	,	8.1053
2000.5383	,	8.0815
2000.653	,	8.0748
2000.7131	,	8.0721
2000.8852	,	8.0968
2000.9126	,	8.0898
2001.0685	,	8.0981
2001.137	,	8.0973
2001.1425	,	8.1003
2001.2247	,	8.1006
2001.2384	,	8.1045
2001.3096	,	8.1033
2001.3753	,	8.1017
2001.4904	,	8.0807
2001.6658	,	8.057
2001.7397	,	8.0535
2001.7753	,	8.0597
2002.1589	,	8.1076
2002.1753	,	8.1098
2002.2877	,	8.1103
2002.3726	,	8.1145
2002.4959	,	8.0875
2002.7041	,	8.0687
2002.7945	,	8.0619
2002.8986	,	8.0721
2003.0849	,	8.0925
2003.1397	,	8.0987
2003.1479	,	8.105
2003.211	,	8.1072
2003.2658	,	8.1045
2003.3699	,	8.1081
2003.4521	,	8.0834
2003.5425	,	8.0697
2003.6986	,	8.0558
2003.8301	,	8.053
2003.8438	,	8.0539
2004.0656	,	8.0921
2004.0822	,	8.0823
2004.1491	,	8.0973
2004.3048	,	8.0866
2004.3185	,	8.0957
2004.8443	,	8.0511
2004.9523	,	8.085
2005.0301	,	8.107
2005.1244	,	8.1014
2005.1941	,	8.0816
2005.2856	,	8.0975
2005.5342	,	8.0728
2005.574	,	8.0673
2005.6546	,	8.0529
2005.6712	,	8.056
2005.7434	,	8.0516
2005.8267	,	8.0564
2005.8936	,	8.0745
2005.9331	,	8.0856
2005.9973	,	8.0937
2006.0329	,	8.1012
2006.1776	,	8.1087
2006.263	,	8.109
2006.324	,	8.0887
2006.3945	,	8.0722
2006.4329	,	8.0707
2006.4358	,	8.0762
2006.5342	,	8.0676
2006.608	,	8.0528
2006.6658	,	8.0461
2006.7014	,	8.0531
2006.7582	,	8.0468
2006.8635	,	8.0614
2006.9753	,	8.0861
2007.0164	,	8.0885
2007.1452	,	8.1001
2007.2215	,	8.0948
2007.2692	,	8.0922
2007.3753	,	8.0798
2007.4137	,	8.0739
2007.5096	,	8.0781
2007.6438	,	8.0606
2007.7719	,	8.0505
2007.7836	,	8.0558
2007.8164	,	8.0574
2007.8295	,	8.0576
2008.1721	,	8.0999
2008.1831	,	8.1055
2008.2884	,	8.0899
2008.3158	,	8.0884
2008.6436	,	8.0669
2008.9249	,	8.0784
2008.9331	,	8.081
2009.0712	,	8.0894
2009.1436	,	8.0975
2009.2324	,	8.0897
2009.2692	,	8.1017
2009.3854	,	8.089
2009.824	,	8.0451
2009.8607	,	8.045
1988.833333	,	8.1097
1988.920765	,	8.1092
1989.021918	,	8.1168
1989.156164	,	8.1316
1989.235616	,	8.1218
1989.378082	,	8.1158
1989.479452	,	8.1018
1989.575342	,	8.0991
1989.646575	,	8.093
1989.726027	,	8.099
1989.79726	,	8.0858
1989.906849	,	8.1101
1990.013699	,	8.1332
1990.126027	,	8.1229
1990.213699	,	8.134
1990.282192	,	8.1229
1990.353425	,	8.1167
1990.449315	,	8.1232
1990.564384	,	8.1084
1990.70411	,	8.085
1990.964384	,	8.1212
1991.093151	,	8.1256
1991.180822	,	8.1263
1991.273973	,	8.1231
1991.350685	,	8.1144
1991.427397	,	8.1139
1991.523288	,	8.112
1991.608219	,	8.0992
1991.715068	,	8.0943
1991.805479	,	8.0981
1991.934247	,	8.104
1992.013661	,	8.1177
1992.125683	,	8.1256
1992.180328	,	8.119
1992.295082	,	8.1099
1992.439891	,	8.1152
1992.510929	,	8.0977
1992.595628	,	8.0956
1992.729508	,	8.0933
1992.803279	,	8.087
1992.898907	,	8.1052
1992.959016	,	8.1161
1993.054795	,	8.1349
1993.131507	,	8.1325
1993.287671	,	8.1074
1993.386301	,	8.1105
1993.706849	,	8.0802
1993.830137	,	8.094
1994.054795	,	8.1508
1994.131507	,	8.1357
1994.186301	,	8.1204
1994.465753	,	8.1021
1994.564384	,	8.0858
1994.663014	,	8.0883
1994.728767	,	8.0875
1994.789041	,	8.088
1994.884932	,	8.1048
1995.10137	,	8.1099
1995.172603	,	8.1171
1995.263014	,	8.1038
1995.347945	,	8.1149
1995.578082	,	8.0937
1995.660274	,	8.0933
1995.736986	,	8.0886
1995.821918	,	8.0997
1995.879452	,	8.1135
1996.046448	,	8.1074
1996.237705	,	8.1122
1996.314208	,	8.1066
1996.39071	,	8.0946
1996.486339	,	8.0902
1996.571038	,	8.0889
1996.639344	,	8.0829
1996.754098	,	8.0836
1996.830601	,	8.0924
1996.945355	,	8.1014
1997.021918	,	8.1102
1997.134247	,	8.0856
1997.194521	,	8.1138
1997.271233	,	8.1155
1997.347945	,	8.101
1997.424658	,	8.1058
1997.520548	,	8.0895
1997.586301	,	8.089
1997.734247	,	8.0805
1997.928767	,	8.1083
1998.030137	,	8.1097
1998.136986	,	8.1135
1998.210959	,	8.1044
1998.287671	,	8.1078
1998.364384	,	8.105
1998.460274	,	8.0937
1998.536986	,	8.0805
1998.608219	,	8.0818
1998.742466	,	8.076
1998.8	,	8.0818
1998.863014	,	8.0825
1998.939726	,	8.0948
1999.035616	,	8.0895
1999.134247	,	8.0997
1999.208219	,	8.135
1999.284932	,	8.123
1999.356164	,	8.1
1999.534247	,	8.0938
1999.616438	,	8.0759
1999.789041	,	8.0711
1999.857534	,	8.0824
1999.956164	,	8.0818
2000.092896	,	8.0966
2000.166667	,	8.0946
2000.243169	,	8.0942
2000.319672	,	8.0941
2000.398907	,	8.0677
2000.472678	,	8.0831
2000.568306	,	8.0872
2000.644809	,	8.0827
2000.797814	,	8.0678
2000.915301	,	8.095
2000.969945	,	8.0922
2001.046575	,	8.0929
2001.123288	,	8.0881
2001.219178	,	8.0894
2001.29589	,	8.0938
2001.372603	,	8.0948
2001.452055	,	8.0984
2001.526027	,	8.0857
2001.60274	,	8.0757
2001.753425	,	8.068
2001.810959	,	8.0885
2001.879452	,	8.0814
2001.953425	,	8.0925
2002.043836	,	8.0959
2002.142466	,	8.108
2002.19726	,	8.1085
2002.386301	,	8.0811
2002.493151	,	8.071
2002.657534	,	8.0706
2002.767123	,	8.0862
2002.843836	,	8.0876
2002.90137	,	8.0876
2002.967123	,	8.0937
2003.046575	,	8.1025
2003.156164	,	8.104
2003.241096	,	8.1016
2003.312329	,	8.0963
2003.386301	,	8.0905
2003.468493	,	8.0824
2003.550685	,	8.0777
2003.638356	,	8.0829
2003.789041	,	8.0873
2003.860274	,	8.0884
2003.969863	,	8.1134
2004.060109	,	8.0967
2004.153005	,	8.1096
2004.218579	,	8.1244
2004.306011	,	8.0988
2004.382514	,	8.0878
2004.459016	,	8.0852
2004.532787	,	8.0701
2004.625683	,	8.071
2004.745902	,	8.0705
2004.833333	,	8.0836
2004.909836	,	8.0898
2004.972678	,	8.0992
2005.090411	,	8.0963
2005.175342	,	8.1065
2005.378082	,	8.0899
2005.454795	,	8.0809
2005.542466	,	8.0664
2005.619178	,	8.0751
2005.693151	,	8.0601
2005.772603	,	8.0777
2005.865753	,	8.0843
2005.950685	,	8.0888
2006.068493	,	8.1135
2006.126027	,	8.0953
2006.189041	,	8.1084
2006.252055	,	8.104
2006.40274	,	8.0901
2006.452055	,	8.0646
2006.531507	,	8.0804
2006.605479	,	8.0723
2006.709589	,	8.077
2006.805479	,	8.0679
2006.857534	,	8.0772
2006.942466	,	8.0908
2007.10411	,	8.1047
2007.219178	,	8.0973
2007.342466	,	8.0808
2007.517808	,	8.0631
2007.591781	,	8.066
2007.673973	,	8.0616
2007.756164	,	8.0639
2007.920548	,	8.0678
2007.972603	,	8.0856
2008.081967	,	8.0957
2008.150273	,	8.0957
2008.407104	,	8.0694
2008.486339	,	8.0735
2008.571038	,	8.0635
2008.628415	,	8.0729
2008.778689	,	8.0799
2008.918033	,	8.0816
2009.057534	,	8.0996
2009.134247	,	8.1084
2009.326027	,	8.0898
2009.405479	,	8.0693
2009.506849	,	8.0676
2009.564384	,	8.0584
2009.632877	,	8.0614
2009.734247	,	8.0541
2009.843836	,	8.0667
2009.942466	,	8.0801
2010.189041	,	8.0969
2010.265753	,	8.0968
2010.380822	,	8.0839
2010.438356	,	8.0688
2010.520548	,	8.0703
2010.60274	,	8.0785
2010.676712	,	8.0691
2010.758904	,	8.0651
2010.890411	,	8.0715
2011.079452	,	8.0891
2011.164384	,	8.0918
2011.279452	,	8.0885
2011.356164	,	8.0797
2011.550685	,	8.0696
2011.663014	,	8.0717
2011.739726	,	8.0645
2011.846575	,	8.0674
2011.912329	,	8.0802
2011.969863	,	8.0811
2012.051913	,	8.0876
2012.23224	,	8.0905
2012.336066	,	8.0789
2012.415301	,	8.0725
2012.489071	,	8.0664
2012.584699	,	8.0563
2012.631148	,	8.0499
2012.70765	,	8.0477
2012.770492	,	8.0587
2012.92623	,	8.0697
2013.120548	,	8.0821
2013.180822	,	8.084
2013.263014	,	8.0822
2013.378082	,	8.0571
2013.484932	,	8.0581
2013.69863	,	8.0499
2013.753425	,	8.0633
2013.824658	,	8.0563
2013.906849	,	8.0733
2013.972603	,	8.0824
2014.043836	,	8.0817
2014.126027	,	8.0888
2014.178082	,	8.0806
2014.276712	,	8.0857
2014.416438	,	8.0751
2014.49863	,	8.06
2014.706849	,	8.0417
2014.786301	,	8.0516
2014.893151	,	8.0709
2014.961644	,	8.0744